dump.vcd
$date
	Mon Feb 10 00:13:53 2020
$end

$version
	Synopsys VCS version P-2019.06-1
$end

$timescale
	1ns
$end

$comment Csum: 1 8a5b4876442a28de $end


$scope module top $end

$scope begin unnamed$$_vcs_2 $end
$upscope $end


$scope begin unnamed$$_vcs_0 $end
$upscope $end


$scope begin unnamed$$_vcs_1 $end
$upscope $end


$scope module clip_filter_if0 $end
$var reg 1 ! clock $end
$var reg 1 " reset_n $end
$var reg 24 # limit [23:0] $end
$var reg 1 $ polarity $end
$var reg 24 % in [23:0] $end
$var reg 24 & out [23:0] $end
$upscope $end


$scope module clip_filter0 $end
$var reg 24 # limit [23:0] $end
$var reg 1 $ polarity $end
$var reg 24 % in [23:0] $end
$var reg 24 ' out [23:0] $end
$var reg 1 ( clock $end
$var reg 1 ) reset_n $end

$scope begin unnamed$$_vcs_0 $end
$upscope $end

$upscope $end

$upscope $end

$enddefinitions $end

#0
$dumpvars
bxxxxxxxxxxxxxxxxxxxxxxxx '
bxxxxxxxxxxxxxxxxxxxxxxxx &
bxxxxxxxxxxxxxxxxxxxxxxxx %
bxxxxxxxxxxxxxxxxxxxxxxxx #
x)
x(
0!
x$
0"
$end
#5
1!
#6
1"
b001100100011011101100010 #
0$
#10
0!
#15
1!
b011001010000111001001010 %
b011001010000111001001010 '
b011001010000111001001010 &
#20
0!
#25
1!
b011101000101111000110111 %
b011101000101111000110111 '
b011101000101111000110111 &
#30
0!
#35
1!
b110110011111011100011010 %
b110110011111011100011010 '
b110110011111011100011010 &
#40
0!
#45
1!
b010100100101010010010110 %
b010100100101010010010110 '
b010100100101010010010110 &
#50
0!
#55
1!
b100111000011001000101111 %
b100111000011001000101111 '
b100111000011001000101111 &
#60
0!
#65
1!
b101011101001100001010101 %
b101011101001100001010101 '
b101011101001100001010101 &
#70
0!
#75
1!
b100111110100111101111111 %
b100111110100111101111111 '
b100111110100111101111111 &
#80
0!
#85
1!
b001110011001011011110000 %
b001110011001011011110000 '
b001110011001011011110000 &
#90
0!
#95
1!
b000110100110111101110001 %
b001100100011011101100010 '
b001100100011011101100010 &
#100
0!
#105
1!
b011001000001011111001000 %
b011001000001011111001000 '
b011001000001011111001000 &
#110
0!
#115
1!
b010110011100011010110110 %
b010110011100011010110110 '
b010110011100011010110110 &
#120
0!
#125
1!
b111001111100010010011010 %
b111001111100010010011010 '
b111001111100010010011010 &
#130
0!
#135
1!
b100010011100111110111011 %
b100010011100111110111011 '
b100010011100111110111011 &
#140
0!
#145
1!
b010111110100110111010101 %
b010111110100110111010101 '
b010111110100110111010101 &
#150
0!
#155
1!
b000011111010010111010010 %
b001100100011011101100010 '
b001100100011011101100010 &
#160
0!
#165
1!
b000100101100011100011010 %
#170
0!
#175
1!
b001100101100100110011111 %
b001100101100100110011111 '
b001100101100100110011111 &
#180
0!
#185
1!
b111100100010010011000001 %
b111100100010010011000001 '
b111100100010010011000001 &
#190
0!
#195
1!
b001101011100100100111111 %
b001101011100100100111111 '
b001101011100100100111111 &
b011101010010111100100100 #
1$
#200
0!
#205
1!
b011001101001010111010010 %
b011001101001010111010010 '
b011001101001010111010010 &
#210
0!
#215
1!
b011011100111011011110101 %
b011011100111011011110101 '
b011011100111011011110101 &
#220
0!
#225
1!
b101000100011011010000000 %
b011101010010111100100100 '
b011101010010111100100100 &
#230
0!
#235
1!
b000100001010111001101110 %
b000100001010111001101110 '
b000100001010111001101110 &
#240
0!
#245
1!
b000101101001010010001001 %
b000101101001010010001001 '
b000101101001010010001001 &
#250
0!
#255
1!
b110101011110110011010011 %
b011101010010111100100100 '
b011101010010111100100100 &
#260
0!
#265
1!
b110011010110100100101101 %
#270
0!
#275
1!
b000111000010011001100010 %
b000111000010011001100010 '
b000111000010011001100010 &
#280
0!
#285
1!
b001110111100011101101011 %
b001110111100011101101011 '
b001110111100011101101011 &
#290
0!
#295
1!
b101100010000001110111100 %
b011101010010111100100100 '
b011101010010111100100100 &
#300
0!
#305
1!
b001010001100101001110000 %
b001010001100101001110000 '
b001010001100101001110000 &
#310
0!
#315
1!
b000101011001001010110011 %
b000101011001001010110011 '
b000101011001001010110011 &
#320
0!
#325
1!
b010000100011001010101010 %
b010000100011001010101010 '
b010000100011001010101010 &
#330
0!
#335
1!
b100111110011000000011100 %
b011101010010111100100100 '
b011101010010111100100100 &
b011000010001010010000011 #
0$
#340
0!
#345
1!
b111011011111101111100000 %
b111011011111101111100000 '
b111011011111101111100000 &
#350
0!
#355
1!
b110010110101111011111000 %
b110010110101111011111000 '
b110010110101111011111000 &
#360
0!
#365
1!
b001011010010000010010111 %
b011000010001010010000011 '
b011000010001010010000011 &
#370
0!
#375
1!
b100100001110101011110100 %
b100100001110101011110100 '
b100100001110101011110100 &
#380
0!
#385
1!
b011110110111100101111101 %
b011110110111100101111101 '
b011110110111100101111101 &
#390
0!
#395
1!
b001111101001010110101101 %
b011000010001010010000011 '
b011000010001010010000011 &
#400
0!
#405
1!
b100111010101000100110111 %
b100111010101000100110111 '
b100111010101000100110111 &
#410
0!
#415
1!
b010011110000110011110010 %
b011000010001010010000011 '
b011000010001010010000011 &
#420
0!
#425
1!
b010101111001111000110001 %
#430
0!
#435
1!
b101100010111101111000101 %
b101100010111101111000101 '
b101100010111101111000101 &
#440
0!
#445
1!
b100000110101110101010100 %
b100000110101110101010100 '
b100000110101110101010100 &
#450
0!
#455
1!
b111111101101010001101000 %
b111111101101010001101000 '
b111111101101010001101000 &
#460
0!
#465
1!
b101011100011010000011110 %
b101011100011010000011110 '
b101011100011010000011110 &
#470
0!
#475
1!
b101110110011001101001010 %
b101110110011001101001010 '
b101110110011001101001010 &
#480
0!
#485
1!
b000110101101010100011110 %
b011000010001010010000011 '
b011000010001010010000011 &
#490
0!
#495
1!
b111001011000000110100000 %
b111001011000000110100000 '
b111001011000000110100000 &
#500
0!
#505
1!
b000001100000001011100000 %
b011000010001010010000011 '
b011000010001010010000011 &
#510
0!
#515
1!
b111101011111111111100111 %
b111101011111111111100111 '
b111101011111111111100111 &
#520
0!
#525
1!
b001010010010110011110010 %
b011000010001010010000011 '
b011000010001010010000011 &
#530
0!
#535
1!
b000111110001100011011100 %
b111001101101011011011100 #
#540
0!
#545
1!
b000111110011001110001111 %
b111001101101011011011100 '
b111001101101011011011100 &
#550
0!
#555
1!
b010011010000000101011001 %
#560
0!
#565
1!
b110111011000110110111111 %
#570
0!
#575
1!
b100010110111000100000100 %
#580
0!
#585
1!
b001100101111101101001101 %
#590
0!
#595
1!
b010111111110100010111000 %
#600
0!
#605
1!
b100011011011111011110010 %
#610
0!
#615
1!
b010010001001001011100101 %
#620
0!
#625
1!
b000000100010111000100111 %
#630
0!
#635
1!
b100100010011101111000100 %
#640
0!
#645
1!
b001011000111010000001010 %
#650
0!
#655
1!
b010100000001010001100111 %
#660
0!
#665
1!
b111000101010000110001000 %
#670
0!
#675
1!
b100010010101000000101110 %
#680
0!
#685
1!
b000010010000011101010000 %
#690
0!
#695
1!
b100101010011000101111100 %
#700
0!
#705
1!
b001000100111001101111001 %
#710
0!
#715
1!
b000110000010010101101111 %
b010101000011110110101111 #
1$
#720
0!
#725
1!
b000001111001100010011110 %
b000001111001100010011110 '
b000001111001100010011110 &
#730
0!
#735
1!
b111001001000111110010011 %
b010101000011110110101111 '
b010101000011110110101111 &
#740
0!
#745
1!
b000000011100001011100010 %
b000000011100001011100010 '
b000000011100001011100010 &
#750
0!
#755
1!
b111101101111000001101010 %
b010101000011110110101111 '
b010101000011110110101111 &
#760
0!
#765
1!
b111000000101101011011101 %
#770
0!
#775
1!
b101101010011011010011001 %
#780
0!
#785
1!
b100000110101000110100010 %
#790
0!
#795
1!
b000110010011001010010110 %
b000110010011001010010110 '
b000110010011001010010110 &
#800
0!
#805
1!
b011100100010001111100001 %
b010101000011110110101111 '
b010101000011110110101111 &
#810
0!
#815
1!
b100111001011100000110000 %
#820
0!
#825
1!
b111010010001110110011010 %
#830
0!
#835
1!
b010101101110011110100000 %
#840
0!
#845
1!
b001101000101001110000111 %
b001101000101001110000111 '
b001101000101001110000111 &
#850
0!
#855
1!
b010011110000011111000100 %
b010011110000011111000100 '
b010011110000011111000100 &
b011011001111100111011000 #
#860
0!
#865
1!
b110111011110011001001111 %
b011011001111100111011000 '
b011011001111100111011000 &
#870
0!
#875
1!
b110010110001001000011100 %
#880
0!
#885
1!
b101110110011100110100100 %
#890
0!
#895
1!
b111111100001010100010010 %
#900
0!
#905
1!
b011100011011110101101001 %
#910
0!
#915
1!
b011011011000001111100101 %
#920
0!
#925
1!
b100110000100101000010000 %
#930
0!
#935
1!
b100001001011001110110101 %
#940
0!
#945
1!
b000001111100001100101010 %
b000001111100001100101010 '
b000001111100001100101010 &
#950
0!
#955
1!
b011010101010001001011100 %
b011010101010001001011100 '
b011010101010001001011100 &
#960
0!
#965
1!
b000111001100101010001101 %
b000111001100101010001101 '
b000111001100101010001101 &
#970
0!
#975
1!
b001011101011010110101000 %
b001011101011010110101000 '
b001011101011010110101000 &
#980
0!
#985
1!
b101011001101110010110001 %
b011011001111100111011000 '
b011011001111100111011000 &
#990
0!
#995
1!
b101001001001000010011011 %
#1000
0!
#1005
1!
b101111101000000100010011 %
#1010
0!
#1015
1!
b011110100100111000010111 %
#1020
0!
#1025
1!
b111110001100101100110111 %
b001001001011101111110110 #
0$
#1030
0!
#1035
1!
b110011101001010110000010 %
b110011101001010110000010 '
b110011101001010110000010 &
#1040
0!
#1045
1!
b010000001111100001000100 %
b010000001111100001000100 '
b010000001111100001000100 &
#1050
0!
#1055
1!
b101100101101110000110111 %
b101100101101110000110111 '
b101100101101110000110111 &
#1060
0!
#1065
1!
b011011001010111111100111 %
b011011001010111111100111 '
b011011001010111111100111 &
#1070
0!
#1075
1!
b001001000111011110110110 %
b001001001011101111110110 '
b001001001011101111110110 &
#1080
0!
#1085
1!
b110011100101101101110010 %
b110011100101101101110010 '
b110011100101101101110010 &
#1090
0!
#1095
1!
b001010101111011011101011 %
b001010101111011011101011 '
b001010101111011011101011 &
#1100
0!
#1105
1!
b011111000110100101010011 %
b011111000110100101010011 '
b011111000110100101010011 &
#1110
0!
#1115
1!
b100101110001111011010111 %
b100101110001111011010111 '
b100101110001111011010111 &
#1120
0!
#1125
1!
b101111100101100110000100 %
b101111100101100110000100 '
b101111100101100110000100 &
#1130
0!
#1135
1!
b101000010011011000111111 %
b101000010011011000111111 '
b101000010011011000111111 &
#1140
0!
#1145
1!
b010101001001011011000000 %
b010101001001011011000000 '
b010101001001011011000000 &
#1150
0!
#1155
1!
b110001111111001110001011 %
b110001111111001110001011 '
b110001111111001110001011 &
#1160
0!
#1165
1!
b001011000000110011011000 %
b001011000000110011011000 '
b001011000000110011011000 &
#1170
0!
#1175
1!
b011010001101000000001110 %
b011010001101000000001110 '
b011010001101000000001110 &
#1180
0!
#1185
1!
b111101111001011111100000 %
b111101111001011111100000 '
b111101111001011111100000 &
#1190
0!
#1195
1!
b011011101100101100010101 %
b011011101100101100010101 '
b011011101100101100010101 &
#1200
0!
#1205
1!
b111010011101101000011100 %
b111010011101101000011100 '
b111010011101101000011100 &
#1210
0!
#1215
1!
b100111010111100000001001 %
b100111010111100000001001 '
b100111010111100000001001 &
#1220
0!
#1225
1!
b110001100010011101101110 %
b110001100010011101101110 '
b110001100010011101101110 &
b110011001101111011111000 #
#1230
0!
#1235
1!
b010010011110011101110111 %
b110011001101111011111000 '
b110011001101111011111000 &
#1240
0!
#1245
1!
b110111011000011110000011 %
b110111011000011110000011 '
b110111011000011110000011 &
#1250
0!
#1255
1!
b010101101010110010101101 %
b110011001101111011111000 '
b110011001101111011111000 &
#1260
0!
#1265
1!
b110111111011010011100100 %
b110111111011010011100100 '
b110111111011010011100100 &
#1270
0!
#1275
1!
b100101010001011100110101 %
b110011001101111011111000 '
b110011001101111011111000 &
#1280
0!
#1285
1!
b011001010011001100111111 %
#1290
0!
#1295
1!
b111110001110100010010000 %
b111110001110100010010000 '
b111110001110100010010000 &
#1300
0!
#1305
1!
b110110111001001101001100 %
b110110111001001101001100 '
b110110111001001101001100 &
#1310
0!
#1315
1!
b011011110000100001000000 %
b110011001101111011111000 '
b110011001101111011111000 &
#1320
0!
#1325
1!
b111001000010110111000111 %
b111001000010110111000111 '
b111001000010110111000111 &
#1330
0!
#1335
1!
b010010100101111100101110 %
b110011001101111011111000 '
b110011001101111011111000 &
#1340
0!
#1345
1!
b001101100100111100100010 %
#1350
0!
#1355
1!
b111010001011101001110011 %
b111010001011101001110011 '
b111010001011101001110011 &
#1360
0!
#1365
1!
b101111101010111110001000 %
b110011001101111011111000 '
b110011001101111011111000 &
#1370
0!
#1375
1!
b001101000000110101111000 %
#1380
0!
#1385
1!
b011010010011010111000011 %
