old/dump.vcd
$date
	Wed Feb 12 04:03:42 2020
$end

$version
	Synopsys VCS version P-2019.06-1
$end

$timescale
	1ns
$end

$comment Csum: 1 49fee06aaea755d2 $end


$scope module top $end

$scope begin unnamed$$_vcs_2 $end
$upscope $end


$scope begin unnamed$$_vcs_0 $end
$upscope $end


$scope begin unnamed$$_vcs_1 $end
$upscope $end


$scope module effect_controller_if0 $end
$var reg 1 ! clock $end
$var reg 1 " reset_n $end
$var reg 1 # enable $end
$var reg 96 $ instruction [95:0] $end
$var reg 24 % in [23:0] $end
$var reg 24 & out [23:0] $end
$upscope $end


$scope module effect_controller0 $end
$var wire 1 ! clock $end
$var wire 1 " reset_n $end
$var wire 1 # enable $end
$var wire 96 $ instruction [95:0] $end
$var wire 24 % in [23:0] $end
$var reg 24 ' out [23:0] $end
$var wire 24 ( opcode [23:0] $end
$var wire 24 ) coefficient [23:0] $end
$var wire 1 * polarity $end
$var wire 24 ) limit [23:0] $end

$scope module limiter_if0 $end
$var reg 1 + clock $end
$var reg 1 , reset_n $end
$var reg 1 - enable $end
$var reg 24 . limit [23:0] $end
$var reg 1 / polarity $end
$var reg 24 0 in [23:0] $end
$var reg 24 1 out [23:0] $end
$upscope $end


$scope module limiter0 $end
$var wire 24 . limit [23:0] $end
$var wire 1 / polarity $end
$var wire 24 0 in [23:0] $end
$var reg 24 2 out [23:0] $end
$var wire 1 + clock $end
$var wire 1 , reset_n $end
$var wire 1 - enable $end

$scope begin unnamed$$_vcs_0 $end
$upscope $end

$upscope $end


$scope module scaler_if0 $end
$var reg 1 3 clock $end
$var reg 1 4 reset_n $end
$var reg 1 5 enable $end
$var reg 24 6 coefficient [23:0] $end
$var reg 1 7 polarity $end
$var reg 24 8 in [23:0] $end
$var reg 24 9 out [23:0] $end
$upscope $end


$scope module scaler0 $end
$var wire 24 6 coefficient [23:0] $end
$var wire 1 7 polarity $end
$var wire 24 8 in [23:0] $end
$var reg 24 : out [23:0] $end
$var wire 1 3 clock $end
$var wire 1 4 reset_n $end
$var wire 1 5 enable $end

$scope begin unnamed$$_vcs_0 $end
$upscope $end

$upscope $end

$upscope $end

$upscope $end

$enddefinitions $end

#0
$dumpvars
x*
bxxxxxxxxxxxxxxxxxxxxxxxx 2
bxxxxxxxxxxxxxxxxxxxxxxxx '
bxxxxxxxxxxxxxxxxxxxxxxxx :
bxxxxxxxxxxxxxxxxxxxxxxxx )
bxxxxxxxxxxxxxxxxxxxxxxxx (
bxxxxxxxxxxxxxxxxxxxxxxxx &
bxxxxxxxxxxxxxxxxxxxxxxxx %
bxxxxxxxxxxxxxxxxxxxxxxxxxxxxxxxxxxxxxxxxxxxxxxxxxxxxxxxxxxxxxxxxxxxxxxxxxxxxxxxxxxxxxxxxxxxxxxxx $
bxxxxxxxxxxxxxxxxxxxxxxxx 1
bxxxxxxxxxxxxxxxxxxxxxxxx 0
bxxxxxxxxxxxxxxxxxxxxxxxx .
bxxxxxxxxxxxxxxxxxxxxxxxx 9
bxxxxxxxxxxxxxxxxxxxxxxxx 8
bxxxxxxxxxxxxxxxxxxxxxxxx 6
0+
x-
x/
0,
03
x5
x7
04
0!
x#
0"
$end
#5
1!
13
1+
b000000000000000000000000 '
b000000000000000000000000 &
#10
0!
03
0+
#15
1!
13
1+
#20
0!
03
0+
#25
1!
13
1+
#30
0!
03
0+
#35
1!
13
1+
#40
0!
03
0+
#45
1!
13
1+
#46
1"
14
1,
0#
05
0-
#50
0!
03
0+
#55
1!
13
1+
#60
0!
03
0+
#65
1!
13
1+
#70
0!
03
0+
#75
1!
13
1+
#80
0!
03
0+
#85
1!
13
1+
#90
0!
03
0+
#95
1!
13
1+
1#
15
1-
b000000000000000000000000000000000000000000000000010101111011100100000011000000000000000000000000 $
b000000000000000000000000 (
b010101111011100100000011 )
0*
0/
07
b010101111011100100000011 .
b010101111011100100000011 6
bxxxxxxxxxxxxxxxxxxxxxxxx '
bxxxxxxxxxxxxxxxxxxxxxxxx &
b010101111011100100000011 2
b010101111011100100000011 1
#100
0!
03
0+
#105
1!
13
1+
b011011011010001100111110 %
b011011011010001100111110 0
b011011011010001100111110 8
b010101111011100100000011 '
b010101111011100100000011 &
b010100101011011110111010 :
b010100101011011110111010 9
b011011011010001100111110 2
b011011011010001100111110 1
#110
0!
03
0+
#115
1!
13
1+
b011001010000111001001010 %
b011001010000111001001010 0
b011001010000111001001010 8
b011011011010001100111110 '
b011011011010001100111110 &
b101010001010010011011110 :
b101010001010010011011110 9
b011001010000111001001010 2
b011001010000111001001010 1
#120
0!
03
0+
#125
1!
13
1+
b011101000101111000110111 %
b011101000101111000110111 0
b011101000101111000110111 8
b011001010000111001001010 '
b011001010000111001001010 &
b001000111101100110100101 :
b001000111101100110100101 9
b011101000101111000110111 2
b011101000101111000110111 1
#130
0!
03
0+
#135
1!
13
1+
b110110011111011100011010 %
b110110011111011100011010 0
b110110011111011100011010 8
b011101000101111000110111 '
b011101000101111000110111 &
b111101011010111101001110 :
b111101011010111101001110 9
b110110011111011100011010 2
b110110011111011100011010 1
#140
0!
03
0+
#145
1!
13
1+
b010100100101010010010110 %
b010100100101010010010110 0
b010100100101010010010110 8
b110110011111011100011010 '
b110110011111011100011010 &
b000100010110001111000010 :
b000100010110001111000010 9
b010101111011100100000011 2
b010101111011100100000011 1
#150
0!
03
0+
#155
1!
13
1+
b100111000011001000101111 %
b100111000011001000101111 0
b100111000011001000101111 8
b010101111011100100000011 '
b010101111011100100000011 &
b000100011000110110001101 :
b000100011000110110001101 9
b100111000011001000101111 2
b100111000011001000101111 1
#160
0!
03
0+
#165
1!
13
1+
b101011101001100001010101 %
b101011101001100001010101 0
b101011101001100001010101 8
b100111000011001000101111 '
b100111000011001000101111 &
b000001000011010111111111 :
b000001000011010111111111 9
b101011101001100001010101 2
b101011101001100001010101 1
#170
0!
03
0+
#175
1!
13
1+
b100111110100111101111111 %
b100111110100111101111111 0
b100111110100111101111111 8
b101011101001100001010101 '
b101011101001100001010101 &
b011110011011010101111101 :
b011110011011010101111101 9
b100111110100111101111111 2
b100111110100111101111111 1
#180
0!
03
0+
#185
1!
13
1+
b001110011001011011110000 %
b001110011001011011110000 0
b001110011001011011110000 8
b100111110100111101111111 '
b100111110100111101111111 &
b010100000011010011010000 :
b010100000011010011010000 9
b010101111011100100000011 2
b010101111011100100000011 1
#190
0!
03
0+
#195
1!
13
1+
b000110100110111101110001 %
b000110100110111101110001 0
b000110100110111101110001 8
b010101111011100100000011 '
b010101111011100100000011 &
b001111101111011101010011 :
b001111101111011101010011 9
#200
0!
03
0+
#205
1!
13
1+
b011001000001011111001000 %
b011001000001011111001000 0
b011001000001011111001000 8
b010100111100111101011000 :
b010100111100111101011000 9
b011001000001011111001000 2
b011001000001011111001000 1
#210
0!
03
0+
#215
1!
13
1+
b010110011100011010110110 %
b010110011100011010110110 0
b010110011100011010110110 8
b011001000001011111001000 '
b011001000001011111001000 &
b100000001101101000100010 :
b100000001101101000100010 9
b010110011100011010110110 2
b010110011100011010110110 1
0#
05
0-
#220
0!
03
0+
#225
1!
13
1+
b010110011100011010110110 '
b010110011100011010110110 &
#230
0!
03
0+
#235
1!
13
1+
#240
0!
03
0+
#245
1!
13
1+
#250
0!
03
0+
#255
1!
13
1+
#260
0!
03
0+
#265
1!
13
1+
1#
15
1-
b000000000000000000000000000000000000000000000000111011010111111001101011000000000000000000000000 $
b111011010111111001101011 )
b111011010111111001101011 .
b111011010111111001101011 6
b110100011010001000010010 :
b110100011010001000010010 9
b111011010111111001101011 2
b111011010111111001101011 1
#270
0!
03
0+
#275
1!
13
1+
b101000100001100010000000 %
b101000100001100010000000 0
b101000100001100010000000 8
b111011010111111001101011 '
b111011010111111001101011 &
b010011110011110110000000 :
b010011110011110110000000 9
#280
0!
03
0+
#285
1!
13
1+
b011001101001010111010010 %
b011001101001010111010010 0
b011001101001010111010010 8
b000001111111101011000110 :
b000001111111101011000110 9
#290
0!
03
0+
#295
1!
13
1+
b011011100111011011110101 %
b011011100111011011110101 0
b011011100111011011110101 8
b100010010100111001100111 :
b100010010100111001100111 9
#300
0!
03
0+
#305
1!
13
1+
b101000100011011010000000 %
b101000100011011010000000 0
b101000100011011010000000 8
b000111111100011110000000 :
b000111111100011110000000 9
#310
0!
03
0+
#315
1!
13
1+
b000100001010111001101110 %
b000100001010111001101110 0
b000100001010111001101110 8
b101010010000101111111010 :
b101010010000101111111010 9
#320
0!
03
0+
#325
1!
13
1+
b000101101001010010001001 %
b000101101001010010001001 0
b000101101001010010001001 8
b011000001000001101000011 :
b011000001000001101000011 9
#330
0!
03
0+
#335
1!
13
1+
b110101011110110011010011 %
b110101011110110011010011 0
b110101011110110011010011 8
b010100001101011000110001 :
b010100001101011000110001 9
#340
0!
03
0+
#345
1!
13
1+
b110011010110100100101101 %
b110011010110100100101101 0
b110011010110100100101101 8
b010010000001101111001111 :
b010010000001101111001111 9
#350
0!
03
0+
#355
1!
13
1+
b000111000010011001100010 %
b000111000010011001100010 0
b000111000010011001100010 8
b011000100100011011110110 :
b011000100100011011110110 9
#360
0!
03
0+
#365
1!
13
1+
b001110111100011101101011 %
b001110111100011101101011 0
b001110111100011101101011 8
b001100100000001110111001 :
b001100100000001110111001 9
#370
0!
03
0+
#375
1!
13
1+
b101100010000001110111100 %
b101100010000001110111100 0
b101100010000001110111100 8
b110111110001011110010100 :
b110111110001011110010100 9
#380
0!
03
0+
#385
1!
13
1+
b001010001100101001110000 %
b001010001100101001110000 0
b001010001100101001110000 8
b010111111011110011010000 :
b010111111011110011010000 9
#390
0!
03
0+
#395
1!
13
1+
b000101011001001010110011 %
b000101011001001010110011 0
b000101011001001010110011 8
b111011110110101011010001 :
b111011110110101011010001 9
#400
0!
03
0+
#405
1!
13
1+
b010000100011001010101010 %
b010000100011001010101010 0
b010000100011001010101010 8
b111111001101100100001110 :
b111111001101100100001110 9
#410
0!
03
0+
#415
1!
13
1+
b100111110011000000011100 %
b100111110011000000011100 0
b100111110011000000011100 8
b001000101110001110110100 :
b001000101110001110110100 9
0#
05
0-
#420
0!
03
0+
#425
1!
13
1+
#430
0!
03
0+
#435
1!
13
1+
#440
0!
03
0+
#445
1!
13
1+
#450
0!
03
0+
#455
1!
13
1+
#460
0!
03
0+
#465
1!
13
1+
1#
15
1-
b000000000000000000000000000000000000000100000000101100010111101010010001000000000000000000000000 $
b101100010111101010010001 )
b101100010111101010010001 .
b101100010111101010010001 6
b011100111001011111011100 :
b011100111001011111011100 9
b101100010111101010010001 2
b101100010111101010010001 1
#470
0!
03
0+
#475
1!
13
1+
b110100011000000101000110 %
b110100011000000101000110 0
b110100011000000101000110 8
b101100010111101010010001 '
b101100010111101010010001 &
b101010111001010010100110 :
b101010111001010010100110 9
b110100011000000101000110 2
b110100011000000101000110 1
#480
0!
03
0+
#485
1!
13
1+
b111011011111101111100000 %
b111011011111101111100000 0
b111011011111101111100000 8
b110100011000000101000110 '
b110100011000000101000110 &
b101101000110100111100000 :
b101101000110100111100000 9
b111011011111101111100000 2
b111011011111101111100000 1
#490
0!
03
0+
#495
1!
13
1+
b110010110101111011111000 %
b110010110101111011111000 0
b110010110101111011111000 8
b111011011111101111100000 '
b111011011111101111100000 &
b111010101111101001111000 :
b111010101111101001111000 9
b110010110101111011111000 2
b110010110101111011111000 1
#500
0!
03
0+
#505
1!
13
1+
b001011010010000010010111 %
b001011010010000010010111 0
b001011010010000010010111 8
b110010110101111011111000 '
b110010110101111011111000 &
b011111100110101110000111 :
b011111100110101110000111 9
b101100010111101010010001 2
b101100010111101010010001 1
#510
0!
03
0+
#515
1!
13
1+
b100100001110101011110100 %
b100100001110101011110100 0
b100100001110101011110100 8
b101100010111101010010001 '
b101100010111101010010001 &
b110000010101110000110100 :
b110000010101110000110100 9
#520
0!
03
0+
#525
1!
13
1+
b011110110111100101111101 %
b011110110111100101111101 0
b011110110111100101111101 8
b010000100110000111001101 :
b010000100110000111001101 9
#530
0!
03
0+
#535
1!
13
1+
b001111101001010110101101 %
b001111101001010110101101 0
b001111101001010110101101 8
b011001000011100011111101 :
b011001000011100011111101 9
#540
0!
03
0+
#545
1!
13
1+
b100111010101000100110111 %
b100111010101000100110111 0
b100111010101000100110111 8
b110101100011011000100111 :
b110101100011011000100111 9
#550
0!
03
0+
#555
1!
13
1+
b010011110000110011110010 %
b010011110000110011110010 0
b010011110000110011110010 8
b010000111010100100010010 :
b010000111010100100010010 9
#560
0!
03
0+
#565
1!
13
1+
b010101111001111000110001 %
b010101111001111000110001 0
b010101111001111000110001 8
b111001001111001111000001 :
b111001001111001111000001 9
#570
0!
03
0+
#575
1!
13
1+
b101100010111101111000101 %
b101100010111101111000101 0
b101100010111101111000101 8
b101101111111110010010101 :
b101101111111110010010101 9
b101100010111101111000101 2
b101100010111101111000101 1
#580
0!
03
0+
#585
1!
13
1+
b100000110101110101010100 %
b100000110101110101010100 0
b100000110101110101010100 8
b101100010111101111000101 '
b101100010111101111000101 &
b111101011110010010010100 :
b111101011110010010010100 9
b101100010111101010010001 2
b101100010111101010010001 1
#590
0!
03
0+
#595
1!
13
1+
b111111101101010001101000 %
b111111101101010001101000 0
b111111101101010001101000 8
b101100010111101010010001 '
b101100010111101010010001 &
b011101111101111011101000 :
b011101111101111011101000 9
b111111101101010001101000 2
b111111101101010001101000 1
#600
0!
03
0+
#605
1!
13
1+
b101011100011010000011110 %
b101011100011010000011110 0
b101011100011010000011110 8
b111111101101010001101000 '
b111111101101010001101000 &
b001111111101000011111110 :
b001111111101000011111110 9
b101100010111101010010001 2
b101100010111101010010001 1
0#
05
0-
#610
0!
03
0+
#615
1!
13
1+
b101100010111101010010001 '
b101100010111101010010001 &
#620
0!
03
0+
#625
1!
13
1+
#630
0!
03
0+
#635
1!
13
1+
#640
0!
03
0+
#645
1!
13
1+
#650
0!
03
0+
#655
1!
13
1+
1#
15
1-
b000000000000000000000000000000000000000000000000000000000000000000000010000000000000000000000001 $
b000000000000000000000001 (
b000000000000000000000010 )
b000000000000000000000010 .
b000000000000000000000010 6
b001111111101000011111110 '
b001111111101000011111110 &
b010111000110100000111100 :
b010111000110100000111100 9
b101011100011010000011110 2
b101011100011010000011110 1
#660
0!
03
0+
#665
1!
13
1+
b010000010100100011101100 %
b010000010100100011101100 0
b010000010100100011101100 8
b010111000110100000111100 '
b010111000110100000111100 &
b100000101001000111011000 :
b100000101001000111011000 9
b010000010100100011101100 2
b010000010100100011101100 1
#670
0!
03
0+
#675
1!
13
1+
b000111110011001110001111 %
b000111110011001110001111 0
b000111110011001110001111 8
b100000101001000111011000 '
b100000101001000111011000 &
b001111100110011100011110 :
b001111100110011100011110 9
b000111110011001110001111 2
b000111110011001110001111 1
#680
0!
03
0+
#685
1!
13
1+
b010011010000000101011001 %
b010011010000000101011001 0
b010011010000000101011001 8
b001111100110011100011110 '
b001111100110011100011110 &
b100110100000001010110010 :
b100110100000001010110010 9
b010011010000000101011001 2
b010011010000000101011001 1
#690
0!
03
0+
#695
1!
13
1+
b110111011000110110111111 %
b110111011000110110111111 0
b110111011000110110111111 8
b100110100000001010110010 '
b100110100000001010110010 &
b101110110001101101111110 :
b101110110001101101111110 9
b110111011000110110111111 2
b110111011000110110111111 1
#700
0!
03
0+
#705
1!
13
1+
b100010110111000100000100 %
b100010110111000100000100 0
b100010110111000100000100 8
b101110110001101101111110 '
b101110110001101101111110 &
b000101101110001000001000 :
b000101101110001000001000 9
b100010110111000100000100 2
b100010110111000100000100 1
#710
0!
03
0+
#715
1!
13
1+
b001100101111101101001101 %
b001100101111101101001101 0
b001100101111101101001101 8
b000101101110001000001000 '
b000101101110001000001000 &
b011001011111011010011010 :
b011001011111011010011010 9
b001100101111101101001101 2
b001100101111101101001101 1
#720
0!
03
0+
#725
1!
13
1+
b010111111110100010111000 %
b010111111110100010111000 0
b010111111110100010111000 8
b011001011111011010011010 '
b011001011111011010011010 &
b101111111101000101110000 :
b101111111101000101110000 9
b010111111110100010111000 2
b010111111110100010111000 1
#730
0!
03
0+
#735
1!
13
1+
b100011011011111011110010 %
b100011011011111011110010 0
b100011011011111011110010 8
b101111111101000101110000 '
b101111111101000101110000 &
b000110110111110111100100 :
b000110110111110111100100 9
b100011011011111011110010 2
b100011011011111011110010 1
#740
0!
03
0+
#745
1!
13
1+
b010010001001001011100101 %
b010010001001001011100101 0
b010010001001001011100101 8
b000110110111110111100100 '
b000110110111110111100100 &
b100100010010010111001010 :
b100100010010010111001010 9
b010010001001001011100101 2
b010010001001001011100101 1
#750
0!
03
0+
#755
1!
13
1+
b000000100010111000100111 %
b000000100010111000100111 0
b000000100010111000100111 8
b100100010010010111001010 '
b100100010010010111001010 &
b000001000101110001001110 :
b000001000101110001001110 9
b000000100010111000100111 2
b000000100010111000100111 1
#760
0!
03
0+
#765
1!
13
1+
b100100010011101111000100 %
b100100010011101111000100 0
b100100010011101111000100 8
b000001000101110001001110 '
b000001000101110001001110 &
b001000100111011110001000 :
b001000100111011110001000 9
b100100010011101111000100 2
b100100010011101111000100 1
#770
0!
03
0+
#775
1!
13
1+
b001011000111010000001010 %
b001011000111010000001010 0
b001011000111010000001010 8
b001000100111011110001000 '
b001000100111011110001000 &
b010110001110100000010100 :
b010110001110100000010100 9
b001011000111010000001010 2
b001011000111010000001010 1
#780
0!
03
0+
#785
1!
13
1+
b010100000001010001100111 %
b010100000001010001100111 0
b010100000001010001100111 8
b010110001110100000010100 '
b010110001110100000010100 &
b101000000010100011001110 :
b101000000010100011001110 9
b010100000001010001100111 2
b010100000001010001100111 1
#790
0!
03
0+
#795
1!
13
1+
b111000101010000110001000 %
b111000101010000110001000 0
b111000101010000110001000 8
b101000000010100011001110 '
b101000000010100011001110 &
b110001010100001100010000 :
b110001010100001100010000 9
b111000101010000110001000 2
b111000101010000110001000 1
#800
0!
03
0+
#805
1!
13
1+
b100010010101000000101110 %
b100010010101000000101110 0
b100010010101000000101110 8
b110001010100001100010000 '
b110001010100001100010000 &
b000100101010000001011100 :
b000100101010000001011100 9
b100010010101000000101110 2
b100010010101000000101110 1
#810
0!
03
0+
#815
1!
13
1+
b000010010000011101010000 %
b000010010000011101010000 0
b000010010000011101010000 8
b000100101010000001011100 '
b000100101010000001011100 &
b000100100000111010100000 :
b000100100000111010100000 9
b000010010000011101010000 2
b000010010000011101010000 1
#820
0!
03
0+
#825
1!
13
1+
b100101010011000101111100 %
b100101010011000101111100 0
b100101010011000101111100 8
b000100100000111010100000 '
b000100100000111010100000 &
b001010100110001011111000 :
b001010100110001011111000 9
b100101010011000101111100 2
b100101010011000101111100 1
#830
0!
03
0+
#835
1!
13
1+
b001000100111001101111001 %
b001000100111001101111001 0
b001000100111001101111001 8
b001010100110001011111000 '
b001010100110001011111000 &
b010001001110011011110010 :
b010001001110011011110010 9
b001000100111001101111001 2
b001000100111001101111001 1
#840
0!
03
0+
#845
1!
13
1+
b000110000010010101101111 %
b000110000010010101101111 0
b000110000010010101101111 8
b010001001110011011110010 '
b010001001110011011110010 &
b001100000100101011011110 :
b001100000100101011011110 9
b000110000010010101101111 2
b000110000010010101101111 1
0#
05
0-
#850
0!
03
0+
#855
1!
13
1+
b001100000100101011011110 '
b001100000100101011011110 &
#860
0!
03
0+
#865
1!
13
1+
#870
0!
03
0+
#875
1!
13
1+
#880
0!
03
0+
#885
1!
13
1+
#890
0!
03
0+
#895
1!
13
1+
1#
15
1-
b000000000000000000000000000000000000000100000000000000000000000000000010000000000000000000000001 $
#900
0!
03
0+
#905
1!
13
1+
b111111011001100100001010 %
b111111011001100100001010 0
b111111011001100100001010 8
b111110110011001000010100 :
b111110110011001000010100 9
b111111011001100100001010 2
b111111011001100100001010 1
#910
0!
03
0+
#915
1!
13
1+
b000001111001100010011110 %
b000001111001100010011110 0
b000001111001100010011110 8
b111110110011001000010100 '
b111110110011001000010100 &
b000011110011000100111100 :
b000011110011000100111100 9
b000001111001100010011110 2
b000001111001100010011110 1
#920
0!
03
0+
#925
1!
13
1+
b111001001000111110010011 %
b111001001000111110010011 0
b111001001000111110010011 8
b000011110011000100111100 '
b000011110011000100111100 &
b110010010001111100100110 :
b110010010001111100100110 9
b111001001000111110010011 2
b111001001000111110010011 1
#930
0!
03
0+
#935
1!
13
1+
b000000011100001011100010 %
b000000011100001011100010 0
b000000011100001011100010 8
b110010010001111100100110 '
b110010010001111100100110 &
b000000111000010111000100 :
b000000111000010111000100 9
b000000011100001011100010 2
b000000011100001011100010 1
#940
0!
03
0+
#945
1!
13
1+
b111101101111000001101010 %
b111101101111000001101010 0
b111101101111000001101010 8
b000000111000010111000100 '
b000000111000010111000100 &
b111011011110000011010100 :
b111011011110000011010100 9
b111101101111000001101010 2
b111101101111000001101010 1
#950
0!
03
0+
#955
1!
13
1+
b111000000101101011011101 %
b111000000101101011011101 0
b111000000101101011011101 8
b111011011110000011010100 '
b111011011110000011010100 &
b110000001011010110111010 :
b110000001011010110111010 9
b111000000101101011011101 2
b111000000101101011011101 1
#960
0!
03
0+
#965
1!
13
1+
b101101010011011010011001 %
b101101010011011010011001 0
b101101010011011010011001 8
b110000001011010110111010 '
b110000001011010110111010 &
b011010100110110100110010 :
b011010100110110100110010 9
b101101010011011010011001 2
b101101010011011010011001 1
#970
0!
03
0+
#975
1!
13
1+
b100000110101000110100010 %
b100000110101000110100010 0
b100000110101000110100010 8
b011010100110110100110010 '
b011010100110110100110010 &
b000001101010001101000100 :
b000001101010001101000100 9
b100000110101000110100010 2
b100000110101000110100010 1
#980
0!
03
0+
#985
1!
13
1+
b000110010011001010010110 %
b000110010011001010010110 0
b000110010011001010010110 8
b000001101010001101000100 '
b000001101010001101000100 &
b001100100110010100101100 :
b001100100110010100101100 9
b000110010011001010010110 2
b000110010011001010010110 1
#990
0!
03
0+
#995
1!
13
1+
b011100100010001111100001 %
b011100100010001111100001 0
b011100100010001111100001 8
b001100100110010100101100 '
b001100100110010100101100 &
b111001000100011111000010 :
b111001000100011111000010 9
b011100100010001111100001 2
b011100100010001111100001 1
#1000
0!
03
0+
#1005
1!
13
1+
b100111001011100000110000 %
b100111001011100000110000 0
b100111001011100000110000 8
b111001000100011111000010 '
b111001000100011111000010 &
b001110010111000001100000 :
b001110010111000001100000 9
b100111001011100000110000 2
b100111001011100000110000 1
#1010
0!
03
0+
#1015
1!
13
1+
b111010010001110110011010 %
b111010010001110110011010 0
b111010010001110110011010 8
b001110010111000001100000 '
b001110010111000001100000 &
b110100100011101100110100 :
b110100100011101100110100 9
b111010010001110110011010 2
b111010010001110110011010 1
#1020
0!
03
0+
#1025
1!
13
1+
b010101101110011110100000 %
b010101101110011110100000 0
b010101101110011110100000 8
b110100100011101100110100 '
b110100100011101100110100 &
b101011011100111101000000 :
b101011011100111101000000 9
b010101101110011110100000 2
b010101101110011110100000 1
0#
05
0-
#1030
0!
03
0+
#1035
1!
13
1+
b101011011100111101000000 '
b101011011100111101000000 &
#1040
0!
03
0+
#1045
1!
13
1+
#1050
0!
03
0+
#1055
1!
13
1+
#1060
0!
03
0+
#1065
1!
13
1+
#1070
0!
03
0+
#1075
1!
13
1+
1#
15
1-
b000000000000000000000000000000000000000100000000000011100000011001100011000000000000000000000000 $
b000000000000000000000000 (
b000011100000011001100011 )
b000011100000011001100011 .
b000011100000011001100011 6
b010101101110011110100000 '
b010101101110011110100000 &
b110010010101001011100000 :
b110010010101001011100000 9
#1080
0!
03
0+
#1085
1!
13
1+
b001111011011011100101010 %
b001111011011011100101010 0
b001111011011011100101010 8
b011101001101000100111110 :
b011101001101000100111110 9
b001111011011011100101010 2
b001111011011011100101010 1
#1090
0!
03
0+
#1095
1!
13
1+
b110111011110011001001111 %
b110111011110011001001111 0
b110111011110011001001111 8
b001111011011011100101010 '
b001111011011011100101010 &
b100001111110101010001101 :
b100001111110101010001101 9
b110111011110011001001111 2
b110111011110011001001111 1
#1100
0!
03
0+
#1105
1!
13
1+
b110010110001001000011100 %
b110010110001001000011100 0
b110010110001001000011100 8
b110111011110011001001111 '
b110111011110011001001111 &
b011111001010100011010100 :
b011111001010100011010100 9
b110010110001001000011100 2
b110010110001001000011100 1
#1110
0!
03
0+
#1115
1!
13
1+
b101110110011100110100100 %
b101110110011100110100100 0
b101110110011100110100100 8
b110010110001001000011100 '
b110010110001001000011100 &
b101110010010001001101100 :
b101110010010001001101100 9
b101110110011100110100100 2
b101110110011100110100100 1
#1120
0!
03
0+
#1125
1!
13
1+
b111111100001010100010010 %
b111111100001010100010010 0
b111111100001010100010010 8
b101110110011100110100100 '
b101110110011100110100100 &
b101111001001000111110110 :
b101111001001000111110110 9
b111111100001010100010010 2
b111111100001010100010010 1
#1130
0!
03
0+
#1135
1!
13
1+
b011100011011110101101001 %
b011100011011110101101001 0
b011100011011110101101001 8
b111111100001010100010010 '
b111111100001010100010010 &
b001010101011010110011011 :
b001010101011010110011011 9
b011100011011110101101001 2
b011100011011110101101001 1
#1140
0!
03
0+
#1145
1!
13
1+
b011011011000001111100101 %
b011011011000001111100101 0
b011011011000001111100101 8
b011100011011110101101001 '
b011100011011110101101001 &
b111101110101111110001111 :
b111101110101111110001111 9
b011011011000001111100101 2
b011011011000001111100101 1
#1150
0!
03
0+
#1155
1!
13
1+
b100110000100101000010000 %
b100110000100101000010000 0
b100110000100101000010000 8
b011011011000001111100101 '
b011011011000001111100101 &
b100000010000010000110000 :
b100000010000010000110000 9
b100110000100101000010000 2
b100110000100101000010000 1
#1160
0!
03
0+
#1165
1!
13
1+
b100001001011001110110101 %
b100001001011001110110101 0
b100001001011001110110101 8
b100110000100101000010000 '
b100110000100101000010000 &
b011011011011110011111111 :
b011011011011110011111111 9
b100001001011001110110101 2
b100001001011001110110101 1
#1170
0!
03
0+
#1175
1!
13
1+
b000001111100001100101010 %
b000001111100001100101010 0
b000001111100001100101010 8
b100001001011001110110101 '
b100001001011001110110101 &
b110111110111010100111110 :
b110111110111010100111110 9
b000011100000011001100011 2
b000011100000011001100011 1
#1180
0!
03
0+
#1185
1!
13
1+
b011010101010001001011100 %
b011010101010001001011100 0
b011010101010001001011100 8
b000011100000011001100011 '
b000011100000011001100011 &
b000100101111000110010100 :
b000100101111000110010100 9
b011010101010001001011100 2
b011010101010001001011100 1
#1190
0!
03
0+
#1195
1!
13
1+
b000111001100101010001101 %
b000111001100101010001101 0
b000111001100101010001101 8
b011010101010001001011100 '
b011010101010001001011100 &
b100101111010001010000111 :
b100101111010001010000111 9
b000111001100101010001101 2
b000111001100101010001101 1
#1200
0!
03
0+
#1205
1!
13
1+
b001011101011010110101000 %
b001011101011010110101000 0
b001011101011010110101000 8
b000111001100101010001101 '
b000111001100101010001101 &
b100000100010111111111000 :
b100000100010111111111000 9
b001011101011010110101000 2
b001011101011010110101000 1
#1210
0!
03
0+
#1215
1!
13
1+
b101011001101110010110001 %
b101011001101110010110001 0
b101011001101110010110001 8
b001011101011010110101000 '
b001011101011010110101000 &
b101100110111111001110011 :
b101100110111111001110011 9
b101011001101110010110001 2
b101011001101110010110001 1
0#
05
0-
#1220
0!
03
0+
#1225
1!
13
1+
b101011001101110010110001 '
b101011001101110010110001 &
#1230
0!
03
0+
#1235
1!
13
1+
#1240
0!
03
0+
#1245
1!
13
1+
#1250
0!
03
0+
#1255
1!
13
1+
#1260
0!
03
0+
#1265
1!
13
1+
1#
15
1-
b000000000000000000000000000000000000000000000000000000000000000000000000000000000000000000000001 $
b000000000000000000000001 (
b000000000000000000000000 )
b000000000000000000000000 .
b000000000000000000000000 6
b101100110111111001110011 '
b101100110111111001110011 &
b000000000000000000000000 :
b000000000000000000000000 9
#1270
0!
03
0+
#1275
1!
13
1+
b010000101111001111110011 %
b010000101111001111110011 0
b010000101111001111110011 8
b000000000000000000000000 '
b000000000000000000000000 &
b010000101111001111110011 2
b010000101111001111110011 1
#1280
0!
03
0+
#1285
1!
13
1+
b110011101001010110000010 %
b110011101001010110000010 0
b110011101001010110000010 8
b110011101001010110000010 2
b110011101001010110000010 1
#1290
0!
03
0+
#1295
1!
13
1+
b010000001111100001000100 %
b010000001111100001000100 0
b010000001111100001000100 8
b010000001111100001000100 2
b010000001111100001000100 1
#1300
0!
03
0+
#1305
1!
13
1+
b101100101101110000110111 %
b101100101101110000110111 0
b101100101101110000110111 8
b101100101101110000110111 2
b101100101101110000110111 1
#1310
0!
03
0+
#1315
1!
13
1+
b011011001010111111100111 %
b011011001010111111100111 0
b011011001010111111100111 8
b011011001010111111100111 2
b011011001010111111100111 1
#1320
0!
03
0+
#1325
1!
13
1+
b001001000111011110110110 %
b001001000111011110110110 0
b001001000111011110110110 8
b001001000111011110110110 2
b001001000111011110110110 1
#1330
0!
03
0+
#1335
1!
13
1+
b110011100101101101110010 %
b110011100101101101110010 0
b110011100101101101110010 8
b110011100101101101110010 2
b110011100101101101110010 1
#1340
0!
03
0+
#1345
1!
13
1+
b001010101111011011101011 %
b001010101111011011101011 0
b001010101111011011101011 8
b001010101111011011101011 2
b001010101111011011101011 1
#1350
0!
03
0+
#1355
1!
13
1+
b011111000110100101010011 %
b011111000110100101010011 0
b011111000110100101010011 8
b011111000110100101010011 2
b011111000110100101010011 1
#1360
0!
03
0+
#1365
1!
13
1+
b100101110001111011010111 %
b100101110001111011010111 0
b100101110001111011010111 8
b100101110001111011010111 2
b100101110001111011010111 1
#1370
0!
03
0+
#1375
1!
13
1+
b101111100101100110000100 %
b101111100101100110000100 0
b101111100101100110000100 8
b101111100101100110000100 2
b101111100101100110000100 1
0#
05
0-
#1380
0!
03
0+
#1385
1!
13
1+
#1390
0!
03
0+
#1395
1!
13
1+
#1400
0!
03
0+
#1405
1!
13
1+
#1410
0!
03
0+
#1415
1!
13
1+
#1420
0!
03
0+
#1425
1!
13
1+
1#
15
1-
#1430
0!
03
0+
